{
	"rules": {
		"align": [
			false
		],
		"ban": false,
		"class-name": true,
		"comment-format": [
			true,
			"check-space"
		],
		"curly": false,
		"eofline": false,
		"forin": true,
		"indent": [
			true,
			"tabs"
		],
		"interface-name": [
			true,
			"always-prefix"
		],
		"jsdoc-format": true,
		"label-position": true,
		"max-line-length": [
			true,
			255
		],
		"member-access": true,
		"member-ordering": [
			true,
			{
				"order": [
					"private-static-field",
					"public-static-field",
					"private-instance-field",
					"public-instance-field",
					"public-constructor",
					"private-constructor",
					"public-instance-method",
					"protected-instance-method",
					"private-instance-method"
				]
			}
		],
		"no-any": false,
		"no-arg": true,
		"no-bitwise": false,
		"no-conditional-assignment": true,
		"no-consecutive-blank-lines": [
			true
		],
		"no-console": [
			true
		],
		"no-construct": false,
		"no-parameter-properties": false,
		"no-debugger": true,
		"no-duplicate-variable": true,
		"no-empty": false,
		"no-eval": true,
		"no-inferrable-types": [
			false
		],
		"no-internal-module": false,
		"no-null-keyword": true,
		"no-require-imports": true,
		"no-shadowed-variable": true,
		"no-string-literal": false,
		"no-switch-case-fall-through": true,
		"no-trailing-whitespace": true,
		"no-unused-expression": true,
		"no-use-before-declare": false,
		"no-var-keyword": true,
		"no-var-requires": true,
		"object-literal-sort-keys": false,
		"one-line": [
			true,
			"check-catch",
			"check-else",
			"check-whitespace"
		],
		"quotemark": [
			true,
			"single",
			"jsx-double",
			"avoid-escape"
		],
		"radix": true,
		"semicolon": [
			true,
			"never"
		],
		"switch-default": true,
		"trailing-comma": [
			true,
			{
				"multiline": "never",
				"singleline": "never"
			}
		],
		"triple-equals": [
			true,
			"allow-null-check"
		],
		"typedef": [
			true,
			"call-signature",
			"parameter",
			"property-declaration"
		],
		"typedef-whitespace": [
			true,
			{
				"call-signature": "nospace",
				"index-signature": "nospace",
				"parameter": "nospace",
				"property-declaration": "nospace",
				"variable-declaration": "nospace"
			}
		],
		"variable-name": [
			true,
			"allow-leading-underscore"
		],
		"whitespace": [
			true,
			"check-branch",
			"check-decl",
			"check-operator",
			"check-separator",
			"check-type"
		]
	}
}